<!-- Generator: Adobe Illustrator 18.0.0, SVG Export Plug-In  -->
<svg version="1.1"
	 xmlns="http://www.w3.org/2000/svg" xmlns:xlink="http://www.w3.org/1999/xlink" xmlns:a="http://ns.adobe.com/AdobeSVGViewerExtensions/3.0/"
	 x="0px" y="0px" width="590px" height="80.5px" viewBox="0 0 590 80.5" enable-background="new 0 0 590 80.5" xml:space="preserve"
	>
<defs>
</defs>
<g>
	<g>
		<text transform="matrix(1 0 0 1 0 75.2344)" fill="#3BB496" font-family="'HiraginoSansGB-W3-GBpc-EUC-H'" font-size="25">我的设备</text>
		<g>
			<g>
				<circle fill="none" stroke="#3BB496" stroke-width="2" stroke-miterlimit="10" cx="50" cy="20.5" r="19.5"/>
				<path fill="none" stroke="#3BB496" stroke-width="2" stroke-miterlimit="10" d="M33,21.2c0,0,2.7,7,6.9,0.6
					c4.2-6.4,4.7-5,10.5,1c5.9,6.1,8.2-3.3,8.2-3.3s2.2-9.8,8.7,3"/>
			</g>
		</g>
	</g>
	<text transform="matrix(1 0 0 1 245 75.2344)" fill="#646464" font-family="'HiraginoSansGB-W3-GBpc-EUC-H'" font-size="25">健康生活</text>
	<text transform="matrix(1 0 0 1 490 75.2344)" fill="#646464" font-family="'HiraginoSansGB-W3-GBpc-EUC-H'" font-size="25">个人中心</text>
	<g>
		<g>
			<circle fill="none" stroke="#646464" stroke-width="2" stroke-miterlimit="10" cx="540" cy="20.5" r="19.5"/>
		</g>
		<path fill="none" stroke="#646464" stroke-width="2" stroke-linecap="round" stroke-linejoin="round" stroke-miterlimit="10" d="
			M548.4,30.1v-2.7c-0.9-2.6-2.9-4.6-5.5-5.5v-1c1.5-1,2.5-2.7,2.5-4.6c0-3-2.4-5.4-5.4-5.4c-3,0-5.4,2.4-5.4,5.4
			c0,1.9,1,3.6,2.6,4.6v1c-2.6,0.9-4.6,2.9-5.5,5.5v2.7"/>
	</g>
	<g>
		<g>
			<circle fill="none" stroke="#646464" stroke-width="2" stroke-miterlimit="10" cx="295" cy="20.5" r="19.5"/>
		</g>
		<g>
			<path fill="none" stroke="#646464" stroke-width="2" stroke-miterlimit="10" d="M302,14.9V30c0,0.8-0.7,1.5-1.5,1.5h-11.6
				c-0.8,0-1.5-0.7-1.5-1.5V14.9H302z"/>
			<path fill="none" stroke="#646464" stroke-width="2" stroke-miterlimit="10" d="M302,17.6c2.5,0,4.6,2.1,4.6,4.6
				c0,2.5-2.1,4.6-4.6,4.6"/>
			<g>
				<line fill="none" stroke="#646464" stroke-width="2" stroke-miterlimit="10" x1="293.2" y1="7.6" x2="293.2" y2="13.2"/>
				<line fill="none" stroke="#646464" stroke-width="2" stroke-miterlimit="10" x1="290.3" y1="10.4" x2="290.3" y2="13.2"/>
				<line fill="none" stroke="#646464" stroke-width="2" stroke-miterlimit="10" x1="299.2" y1="10.4" x2="299.2" y2="13.2"/>
				<line fill="none" stroke="#646464" stroke-width="2" stroke-miterlimit="10" x1="296.2" y1="9" x2="296.2" y2="13.2"/>
			</g>
		</g>
	</g>
</g>
</svg>
